%!PS-Adobe EPSF-3
%%BoundingBox:0 0 413 511

newpath
169.677814 243.438009 moveto
155.504586 229.264781 lineto
155.504586 135.892233 lineto
169.677814 121.719005 lineto
closepath
1.0 1.0 1.0 setrgbcolor
fill
newpath
291.396819 121.719005 moveto
305.570047 135.892233 lineto
305.570047 229.264781 lineto
291.396819 243.438009 lineto
closepath
1.0 1.0 1.0 setrgbcolor
fill
newpath
169.677814 121.719005 moveto
155.504586 107.545776 lineto
155.504586 14.173228 lineto
169.677814 0.000000 lineto
closepath
1.0 1.0 1.0 setrgbcolor
fill
newpath
291.396819 0.000000 moveto
305.570047 14.173228 lineto
305.570047 107.545776 lineto
291.396819 121.719005 lineto
closepath
1.0 1.0 1.0 setrgbcolor
fill
newpath
291.396819 486.876019 moveto
277.223590 501.049247 lineto
183.851042 501.049247 lineto
169.677814 486.876019 lineto
closepath
1.0 1.0 1.0 setrgbcolor
fill
newpath
169.677814 486.876019 moveto
155.504586 472.702790 lineto
155.504586 379.330242 lineto
169.677814 365.157014 lineto
closepath
1.0 1.0 1.0 setrgbcolor
fill
newpath
291.396819 365.157014 moveto
305.570047 379.330242 lineto
305.570047 472.702790 lineto
291.396819 486.876019 lineto
closepath
1.0 1.0 1.0 setrgbcolor
fill
newpath
 413.115823 243.438009 moveto
 413.115823 365.157014 lineto
 291.396819 365.157014 lineto
 291.396819 243.438009 lineto
closepath
1.0 1.0 1.0 setrgbcolor
fill
newpath
 291.396819 243.438009 moveto
 291.396819 365.157014 lineto
 169.677814 365.157014 lineto
 169.677814 243.438009 lineto
closepath
1.0 1.0 1.0 setrgbcolor
fill
newpath
 291.396819 243.438009 moveto
 169.677814 243.438009 lineto
 169.677814 121.719005 lineto
 291.396819 121.719005 lineto
closepath
1.0 1.0 1.0 setrgbcolor
fill
newpath
 291.396819 121.719005 moveto
 169.677814 121.719005 lineto
 169.677814 0.000000 lineto
 291.396819 0.000000 lineto
closepath
1.0 1.0 1.0 setrgbcolor
fill
newpath
 291.396819 486.876019 moveto
 169.677814 486.876019 lineto
 169.677814 365.157014 lineto
 291.396819 365.157014 lineto
closepath
1.0 1.0 1.0 setrgbcolor
fill
newpath
 169.677814 365.157014 moveto
 47.958809 365.157014 lineto
 47.958809 243.438009 lineto
 169.677814 243.438009 lineto
closepath
1.0 1.0 1.0 setrgbcolor
fill
0.0 0.0 0.0 setrgbcolor
[2.834646 2.834646 ] 0 setdash
291.396819 365.157014 moveto
291.396819 243.438009 lineto
stroke
[2.834646 2.834646 ] 0 setdash
291.396819 365.157014 moveto
169.677814 365.157014 lineto
stroke
[2.834646 2.834646 ] 0 setdash
169.677814 365.157014 moveto
169.677814 243.438009 lineto
stroke
[2.834646 2.834646 ] 0 setdash
169.677814 243.438009 moveto
291.396819 243.438009 lineto
stroke
[2.834646 2.834646 ] 0 setdash
169.677814 243.438009 moveto
169.677814 121.719005 lineto
stroke
[2.834646 2.834646 ] 0 setdash
169.677814 121.719005 moveto
291.396819 121.719005 lineto
stroke
[2.834646 2.834646 ] 0 setdash
291.396819 121.719005 moveto
291.396819 243.438009 lineto
stroke
[2.834646 2.834646 ] 0 setdash
169.677814 121.719005 moveto
169.677814 0.000000 lineto
stroke
[2.834646 2.834646 ] 0 setdash
291.396819 0.000000 moveto
291.396819 121.719005 lineto
stroke
[2.834646 2.834646 ] 0 setdash
291.396819 486.876019 moveto
169.677814 486.876019 lineto
stroke
[2.834646 2.834646 ] 0 setdash
169.677814 486.876019 moveto
169.677814 365.157014 lineto
stroke
[2.834646 2.834646 ] 0 setdash
291.396819 365.157014 moveto
291.396819 486.876019 lineto
stroke
[] 0 setdash
newpath
169.677814 243.438009 moveto
47.958809 243.438009 lineto
47.958809 365.157014 lineto
169.677814 365.157014 lineto
155.504586 379.330242 lineto
155.504586 472.702790 lineto
169.677814 486.876019 lineto
169.677814 486.876019 lineto
183.851042 501.049247 lineto
277.223590 501.049247 lineto
291.396819 486.876019 lineto
291.396819 486.876019 lineto
305.570047 472.702790 lineto
305.570047 379.330242 lineto
291.396819 365.157014 lineto
413.115823 365.157014 lineto
413.115823 243.438009 lineto
291.396819 243.438009 lineto
305.570047 229.264781 lineto
305.570047 135.892233 lineto
291.396819 121.719005 lineto
305.570047 107.545776 lineto
305.570047 14.173228 lineto
291.396819 -0.000000 lineto
291.396819 0.000000 lineto
291.396819 0.000000 lineto
169.677814 -0.000000 lineto
169.677814 0.000000 lineto
169.677814 0.000000 lineto
155.504586 14.173228 lineto
155.504586 107.545776 lineto
169.677814 121.719005 lineto
169.677814 121.719005 lineto
155.504586 135.892233 lineto
155.504586 229.264781 lineto
169.677814 243.438009 lineto
closepath
stroke
[] 0 setdash
291.396819 121.719005 moveto
291.396819 121.719005 lineto
stroke